
{
  "header": {
    "event": "Allocation failed - JavaScript heap out of memory",
    "trigger": "FatalError",
    "filename": "report.20190713.183209.4764.0.001.json",
    "dumpEventTime": "2019-07-13T18:32:09Z",
    "dumpEventTimeStamp": "1563039129298",
    "processId": 4764,
    "cwd": "C:\\Projects\\TechTest\\src\\Markeli.TechTest.Web\\ClientApp",
    "commandLine": [
      "node",
      "C:\\Projects\\TechTest\\src\\Markeli.TechTest.Web\\ClientApp\\node_modules\\.bin\\\\..\\@angular\\cli\\bin\\ng",
      "serve",
      "--port",
      "61000"
    ],
    "nodejsVersion": "v12.5.0",
    "wordSize": 64,
    "arch": "x64",
    "platform": "win32",
    "componentVersions": {
      "node": "12.5.0",
      "v8": "7.5.288.22-node.14",
      "uv": "1.29.1",
      "zlib": "1.2.11",
      "brotli": "1.0.7",
      "ares": "1.15.0",
      "modules": "72",
      "nghttp2": "1.38.0",
      "napi": "4",
      "llhttp": "1.1.4",
      "http_parser": "2.8.0",
      "openssl": "1.1.1c",
      "cldr": "35.1",
      "icu": "64.2",
      "tz": "2019a",
      "unicode": "12.1"
    },
    "release": {
      "name": "node",
      "headersUrl": "https://nodejs.org/download/release/v12.5.0/node-v12.5.0-headers.tar.gz",
      "sourceUrl": "https://nodejs.org/download/release/v12.5.0/node-v12.5.0.tar.gz",
      "libUrl": "https://nodejs.org/download/release/v12.5.0/win-x64/node.lib"
    },
    "osName": "Windows_NT",
    "osRelease": "10.0.17134",
    "osVersion": "Windows 10 Pro",
    "osMachine": "x86_64",
    "cpus": [
      {
        "model": "Intel(R) Core(TM) i5-7300U CPU @ 2.60GHz",
        "speed": 2712,
        "user": 11089500,
        "nice": 0,
        "sys": 8180531,
        "idle": 137362125,
        "irq": 877843
      },
      {
        "model": "Intel(R) Core(TM) i5-7300U CPU @ 2.60GHz",
        "speed": 2712,
        "user": 11089500,
        "nice": 0,
        "sys": 8180531,
        "idle": 137362125,
        "irq": 877843
      },
      {
        "model": "Intel(R) Core(TM) i5-7300U CPU @ 2.60GHz",
        "speed": 2712,
        "user": 11089500,
        "nice": 0,
        "sys": 8180531,
        "idle": 137362125,
        "irq": 877843
      },
      {
        "model": "Intel(R) Core(TM) i5-7300U CPU @ 2.60GHz",
        "speed": 2712,
        "user": 11089500,
        "nice": 0,
        "sys": 8180531,
        "idle": 137362125,
        "irq": 877843
      }
    ],
    "host": "DESKTOP-64NCD0R"
  },
  "javascriptStack": {
    "message": "No stack.",
    "stack": [
      "Unavailable."
    ]
  },
  "nativeStack": [
    {
      "pc": "0x00007ff7f1296e09",
      "symbol": "std::basic_ostream<char,std::char_traits<char> >::operator<<+10889"
    },
    {
      "pc": "0x00007ff7f129a704",
      "symbol": "std::basic_ostream<char,std::char_traits<char> >::operator<<+25476"
    },
    {
      "pc": "0x00007ff7f1299728",
      "symbol": "std::basic_ostream<char,std::char_traits<char> >::operator<<+21416"
    },
    {
      "pc": "0x00007ff7f1382f5b",
      "symbol": "v8::base::CPU::has_sse+38011"
    },
    {
      "pc": "0x00007ff7f1b67e2e",
      "symbol": "v8::Isolate::ReportExternalAllocationLimitReached+94"
    },
    {
      "pc": "0x00007ff7f1b5017a",
      "symbol": "v8::SharedArrayBuffer::Externalize+842"
    },
    {
      "pc": "0x00007ff7f19e197c",
      "symbol": "v8::internal::Heap::EphemeronKeyWriteBarrierFromCode+1436"
    },
    {
      "pc": "0x00007ff7f19e98af",
      "symbol": "v8::internal::Heap::OldGenerationSizeOfObjects+4895"
    },
    {
      "pc": "0x00007ff7f19dfb43",
      "symbol": "v8::internal::Heap::CollectGarbage+1235"
    },
    {
      "pc": "0x00007ff7f19de3d4",
      "symbol": "v8::internal::Heap::AddRetainedMap+2292"
    },
    {
      "pc": "0x00007ff7f19fceb5",
      "symbol": "v8::internal::Factory::NewFillerObject+53"
    },
    {
      "pc": "0x00007ff7f17b321d",
      "symbol": "v8::internal::interpreter::JumpTableTargetOffsets::iterator::operator=+3757"
    },
    {
      "pc": "0x00007ff7f1c10b1d",
      "symbol": "v8::internal::SetupIsolateDelegate::SetupHeap+614605"
    },
    {
      "pc": "0x00007ff7f1b847cc",
      "symbol": "v8::internal::SetupIsolateDelegate::SetupHeap+40316"
    },
    {
      "pc": "0x000000a6c4e76191",
      "symbol": ""
    }
  ],
  "javascriptHeap": {
    "totalMemory": 269901824,
    "totalCommittedMemory": 269901824,
    "usedMemory": 254005352,
    "availableMemory": 1943874256,
    "memoryLimit": 2197815296,
    "heapSpaces": {
      "read_only_space": {
        "memorySize": 262144,
        "committedMemory": 262144,
        "capacity": 261832,
        "used": 31960,
        "available": 229872
      },
      "new_space": {
        "memorySize": 1048576,
        "committedMemory": 1048576,
        "capacity": 1047328,
        "used": 1047328,
        "available": 0
      },
      "old_space": {
        "memorySize": 200945664,
        "committedMemory": 200945664,
        "capacity": 200540936,
        "used": 191098536,
        "available": 9442400
      },
      "code_space": {
        "memorySize": 3309568,
        "committedMemory": 3309568,
        "capacity": 2986240,
        "used": 2726592,
        "available": 259648
      },
      "map_space": {
        "memorySize": 8130560,
        "committedMemory": 8130560,
        "capacity": 8119056,
        "used": 3137520,
        "available": 4981536
      },
      "large_object_space": {
        "memorySize": 55582720,
        "committedMemory": 55582720,
        "capacity": 55413112,
        "used": 55413112,
        "available": 0
      },
      "code_large_object_space": {
        "memorySize": 622592,
        "committedMemory": 622592,
        "capacity": 550304,
        "used": 550304,
        "available": 0
      },
      "new_large_object_space": {
        "memorySize": 0,
        "committedMemory": 0,
        "capacity": 1047328,
        "used": 0,
        "available": 1047328
      }
    }
  },
  "resourceUsage": {
    "userCpuSeconds": 29.281,
    "kernelCpuSeconds": 6.906,
    "cpuConsumptionPercent": 0.202944,
    "maxRss": 601194496,
    "pageFaults": {
      "IORequired": 374252,
      "IONotRequired": 0
    },
    "fsActivity": {
      "reads": 4636,
      "writes": 9
    }
  },
  "libuv": [
  ],
  "environmentVariables": {
    "=C:": "C:\\Projects\\TechTest\\src\\Markeli.TechTest.Web\\ClientApp",
    "ALLUSERSPROFILE": "C:\\ProgramData",
    "APPDATA": "C:\\Users\\kreed\\AppData\\Roaming",
    "APP_POOL_CONFIG": "C:\\Projects\\TechTest\\src\\.vs\\Markeli.TechTest\\config\\applicationhost.config",
    "APP_POOL_ID": "Markeli.TechTest.Web AppPool",
    "ASPNETCORE_ENVIRONMENT": "Development",
    "ASPNETCORE_HOSTINGSTARTUPASSEMBLIES": "Microsoft.AspNetCore.Server.IISIntegration",
    "ASPNETCORE_IIS_HTTPAUTH": "anonymous;",
    "ASPNETCORE_IIS_PHYSICAL_PATH": "C:\\Projects\\TechTest\\src\\Markeli.TechTest.Web\\",
    "ChocolateyInstall": "C:\\ProgramData\\chocolatey",
    "ChocolateyLastPathUpdate": "132061242823526584",
    "CommonProgramFiles": "C:\\Program Files\\Common Files",
    "CommonProgramFiles(x86)": "C:\\Program Files (x86)\\Common Files",
    "CommonProgramW6432": "C:\\Program Files\\Common Files",
    "COMPLUS_ForceENC": "1",
    "COMPLUS_MDA": "managedDebugger",
    "COMPUTERNAME": "DESKTOP-64NCD0R",
    "ComSpec": "C:\\WINDOWS\\system32\\cmd.exe",
    "DEV_ENVIRONMENT": "1",
    "DriverData": "C:\\Windows\\System32\\Drivers\\DriverData",
    "FPS_BROWSER_APP_PROFILE_STRING": "Internet Explorer",
    "FPS_BROWSER_USER_PROFILE_STRING": "Default",
    "HOME": "C:\\Users\\kreed",
    "HOMEDRIVE": "C:",
    "HOMEPATH": "\\Users\\kreed",
    "IISEXPRESS_SITENAME": "Markeli.TechTest.Web",
    "IIS_BIN": "C:\\Program Files\\IIS Express",
    "IIS_DRIVE": "C:",
    "IIS_SITES_HOME": "C:\\Users\\kreed\\OneDrive\\Documents\\My Web Sites",
    "IIS_USER_HOME": "C:\\Users\\kreed\\OneDrive\\Documents\\IISExpress",
    "INIT_CWD": "C:\\Projects\\TechTest\\src\\Markeli.TechTest.Web\\ClientApp",
    "LAUNCHER_ARGS": "exec \"C:\\Projects\\TechTest\\src\\Markeli.TechTest.Web\\bin\\Debug\\netcoreapp2.2\\Markeli.TechTest.Web.dll\"",
    "LAUNCHER_PATH": "C:\\Program Files\\dotnet\\dotnet.exe",
    "LOCALAPPDATA": "C:\\Users\\kreed\\AppData\\Local",
    "LOGONSERVER": "\\\\DESKTOP-64NCD0R",
    "MSBuildLoadMicrosoftTargetsReadOnly": "true",
    "NODE": "C:\\Program Files\\nodejs\\node.exe",
    "NODE_EXE": "C:\\Program Files\\nodejs\\\\node.exe",
    "NPM_CLI_JS": "C:\\Program Files\\nodejs\\\\node_modules\\npm\\bin\\npm-cli.js",
    "npm_config_access": "",
    "npm_config_allow_same_version": "",
    "npm_config_also": "",
    "npm_config_always_auth": "",
    "npm_config_argv": "{\"remain\":[\"--port\",\"61000\"],\"cooked\":[\"run\",\"start\",\"--\",\"--port\",\"61000\"],\"original\":[\"run\",\"start\",\"--\",\"--port\",\"61000\"]}",
    "npm_config_audit": "true",
    "npm_config_audit_level": "low",
    "npm_config_auth_type": "legacy",
    "npm_config_before": "",
    "npm_config_bin_links": "true",
    "npm_config_browser": "",
    "npm_config_ca": "",
    "npm_config_cache": "C:\\Users\\kreed\\AppData\\Roaming\\npm-cache",
    "npm_config_cache_lock_retries": "10",
    "npm_config_cache_lock_stale": "60000",
    "npm_config_cache_lock_wait": "10000",
    "npm_config_cache_max": "Infinity",
    "npm_config_cache_min": "10",
    "npm_config_cafile": "",
    "npm_config_cert": "",
    "npm_config_cidr": "",
    "npm_config_color": "true",
    "npm_config_commit_hooks": "true",
    "npm_config_depth": "Infinity",
    "npm_config_description": "true",
    "npm_config_dev": "",
    "npm_config_dry_run": "",
    "npm_config_editor": "notepad.exe",
    "npm_config_engine_strict": "",
    "npm_config_fetch_retries": "2",
    "npm_config_fetch_retry_factor": "10",
    "npm_config_fetch_retry_maxtimeout": "60000",
    "npm_config_fetch_retry_mintimeout": "10000",
    "npm_config_force": "",
    "npm_config_git": "git",
    "npm_config_git_tag_version": "true",
    "npm_config_global": "",
    "npm_config_globalconfig": "C:\\Users\\kreed\\AppData\\Roaming\\npm\\etc\\npmrc",
    "npm_config_globalignorefile": "C:\\Users\\kreed\\AppData\\Roaming\\npm\\etc\\npmignore",
    "npm_config_global_style": "",
    "npm_config_group": "",
    "npm_config_ham_it_up": "",
    "npm_config_heading": "npm",
    "npm_config_https_proxy": "",
    "npm_config_if_present": "",
    "npm_config_ignore_prepublish": "",
    "npm_config_ignore_scripts": "",
    "npm_config_init_author_email": "",
    "npm_config_init_author_name": "",
    "npm_config_init_author_url": "",
    "npm_config_init_license": "ISC",
    "npm_config_init_module": "C:\\Users\\kreed\\.npm-init.js",
    "npm_config_init_version": "1.0.0",
    "npm_config_json": "",
    "npm_config_key": "",
    "npm_config_legacy_bundling": "",
    "npm_config_link": "",
    "npm_config_local_address": "",
    "npm_config_loglevel": "notice",
    "npm_config_logs_max": "10",
    "npm_config_long": "",
    "npm_config_maxsockets": "50",
    "npm_config_message": "%s",
    "npm_config_metrics_registry": "https://registry.npmjs.org/",
    "npm_config_node_gyp": "C:\\Program Files\\nodejs\\node_modules\\npm\\node_modules\\node-gyp\\bin\\node-gyp.js",
    "npm_config_node_options": "",
    "npm_config_node_version": "12.5.0",
    "npm_config_noproxy": "",
    "npm_config_offline": "",
    "npm_config_onload_script": "",
    "npm_config_only": "",
    "npm_config_optional": "true",
    "npm_config_otp": "",
    "npm_config_package_lock": "true",
    "npm_config_package_lock_only": "",
    "npm_config_parseable": "",
    "npm_config_prefer_offline": "",
    "npm_config_prefer_online": "",
    "npm_config_prefix": "C:\\Users\\kreed\\AppData\\Roaming\\npm",
    "npm_config_preid": "",
    "npm_config_production": "",
    "npm_config_progress": "true",
    "npm_config_proxy": "",
    "npm_config_read_only": "",
    "npm_config_rebuild_bundle": "true",
    "npm_config_registry": "https://registry.npmjs.org/",
    "npm_config_rollback": "true",
    "npm_config_save": "true",
    "npm_config_save_bundle": "",
    "npm_config_save_dev": "",
    "npm_config_save_exact": "",
    "npm_config_save_optional": "",
    "npm_config_save_prefix": "^",
    "npm_config_save_prod": "",
    "npm_config_scope": "",
    "npm_config_scripts_prepend_node_path": "warn-only",
    "npm_config_script_shell": "",
    "npm_config_searchexclude": "",
    "npm_config_searchlimit": "20",
    "npm_config_searchopts": "",
    "npm_config_searchstaleness": "900",
    "npm_config_send_metrics": "",
    "npm_config_shell": "C:\\WINDOWS\\system32\\cmd.exe",
    "npm_config_shrinkwrap": "true",
    "npm_config_sign_git_commit": "",
    "npm_config_sign_git_tag": "",
    "npm_config_sso_poll_frequency": "500",
    "npm_config_sso_type": "oauth",
    "npm_config_strict_ssl": "true",
    "npm_config_tag": "latest",
    "npm_config_tag_version_prefix": "v",
    "npm_config_timing": "",
    "npm_config_tmp": "C:\\Users\\kreed\\AppData\\Local\\Temp",
    "npm_config_umask": "0000",
    "npm_config_unicode": "",
    "npm_config_unsafe_perm": "true",
    "npm_config_update_notifier": "true",
    "npm_config_usage": "",
    "npm_config_user": "",
    "npm_config_userconfig": "C:\\Users\\kreed\\.npmrc",
    "npm_config_user_agent": "npm/6.9.0 node/v12.5.0 win32 x64",
    "npm_config_version": "",
    "npm_config_versions": "",
    "npm_config_viewer": "browser",
    "npm_execpath": "C:\\Program Files\\nodejs\\node_modules\\npm\\bin\\npm-cli.js",
    "npm_lifecycle_event": "start",
    "npm_lifecycle_script": "ng serve \"--port\" \"61000\"",
    "npm_node_execpath": "C:\\Program Files\\nodejs\\node.exe",
    "npm_package_dependencies_bootstrap": "^4.3.1",
    "npm_package_dependencies_ng2_file_upload": "^1.3.0",
    "npm_package_dependencies_rxjs": "~6.4.0",
    "npm_package_dependencies_rxjs_compat": "^6.5.2",
    "npm_package_dependencies_tslib": "^1.9.0",
    "npm_package_dependencies_zone_js": "~0.9.1",
    "npm_package_dependencies__angular_animations": "~8.0.3",
    "npm_package_dependencies__angular_common": "~8.0.3",
    "npm_package_dependencies__angular_compiler": "~8.0.3",
    "npm_package_dependencies__angular_core": "~8.0.3",
    "npm_package_dependencies__angular_forms": "~8.0.3",
    "npm_package_dependencies__angular_platform_browser": "~8.0.3",
    "npm_package_dependencies__angular_platform_browser_dynamic": "~8.0.3",
    "npm_package_dependencies__angular_router": "~8.0.3",
    "npm_package_description": "This project was generated with [Angular CLI](https://github.com/angular/angular-cli) version 8.0.6.",
    "npm_package_devDependencies_codelyzer": "^5.0.0",
    "npm_package_devDependencies_jasmine_core": "~3.4.0",
    "npm_package_devDependencies_jasmine_spec_reporter": "~4.2.1",
    "npm_package_devDependencies_karma": "~4.1.0",
    "npm_package_devDependencies_karma_chrome_launcher": "~2.2.0",
    "npm_package_devDependencies_karma_coverage_istanbul_reporter": "~2.0.1",
    "npm_package_devDependencies_karma_jasmine": "~2.0.1",
    "npm_package_devDependencies_karma_jasmine_html_reporter": "^1.4.0",
    "npm_package_devDependencies_protractor": "~5.4.0",
    "npm_package_devDependencies_tslint": "~5.15.0",
    "npm_package_devDependencies_ts_node": "~7.0.0",
    "npm_package_devDependencies_typescript": "~3.4.3",
    "npm_package_devDependencies__angular_cli": "~8.0.6",
    "npm_package_devDependencies__angular_compiler_cli": "~8.0.3",
    "npm_package_devDependencies__angular_devkit_build_angular": "~0.800.6",
    "npm_package_devDependencies__angular_language_service": "~8.0.3",
    "npm_package_devDependencies__types_jasmine": "~3.3.8",
    "npm_package_devDependencies__types_jasminewd2": "~2.0.3",
    "npm_package_devDependencies__types_node": "~8.9.4",
    "npm_package_name": "client-app",
    "npm_package_private": "true",
    "npm_package_readmeFilename": "README.md",
    "npm_package_scripts_build": "ng build",
    "npm_package_scripts_e2e": "ng e2e",
    "npm_package_scripts_lint": "ng lint",
    "npm_package_scripts_ng": "ng",
    "npm_package_scripts_start": "ng serve \"--port\" \"61000\"",
    "npm_package_scripts_test": "ng test",
    "npm_package_version": "0.0.0",
    "NPM_PREFIX_NPM_CLI_JS": "C:\\Users\\kreed\\AppData\\Roaming\\npm\\node_modules\\npm\\bin\\npm-cli.js",
    "NUMBER_OF_PROCESSORS": "4",
    "OneDrive": "C:\\Users\\kreed\\OneDrive",
    "OneDriveConsumer": "C:\\Users\\kreed\\OneDrive",
    "OS": "Windows_NT",
    "Path": "C:\\Program Files\\nodejs\\node_modules\\npm\\node_modules\\npm-lifecycle\\node-gyp-bin;C:\\Projects\\TechTest\\src\\Markeli.TechTest.Web\\ClientApp\\node_modules\\.bin;C:\\Python27\\;C:\\Python27\\Scripts;C:\\WINDOWS\\system32;C:\\WINDOWS;C:\\WINDOWS\\System32\\Wbem;C:\\WINDOWS\\System32\\WindowsPowerShell\\v1.0\\;C:\\Program Files\\dotnet\\;C:\\Program Files\\Microsoft SQL Server\\130\\Tools\\Binn\\;C:\\Program Files (x86)\\Git\\cmd;C:\\Program Files (x86)\\GitExtensions\\;C:\\Program Files (x86)\\Yarn\\bin\\;C:\\WINDOWS\\System32\\OpenSSH\\;C:\\Program Files (x86)\\Microsoft SQL Server\\140\\Tools\\Binn\\;C:\\Program Files\\Microsoft SQL Server\\140\\Tools\\Binn\\;C:\\Program Files (x86)\\Microsoft SQL Server\\140\\DTS\\Binn\\;C:\\Program Files\\Microsoft SQL Server\\140\\DTS\\Binn\\;C:\\Program Files\\Microsoft SQL Server\\Client SDK\\ODBC\\130\\Tools\\Binn\\;C:\\Program Files (x86)\\Microsoft SQL Server\\Client SDK\\ODBC\\130\\Tools\\Binn\\;C:\\Program Files (x86)\\Microsoft SQL Server\\140\\Tools\\Binn\\ManagementStudio\\;C:\\Program Files\\Microsoft VS Code\\bin;C:\\Program Files\\nodejs\\;C:\\ProgramData\\chocolatey\\bin;C:\\Program Files\\Microsoft SQL Server\\Client SDK\\ODBC\\170\\Tools\\Binn\\;C:\\Users\\kreed\\AppData\\Local\\Microsoft\\WindowsApps;C:\\Users\\kreed\\AppData\\Local\\Yarn\\bin;C:\\Users\\kreed\\AppData\\Local\\Programs\\Fiddler;C:\\Users\\kreed\\AppData\\Roaming\\npm;C:\\Users\\kreed\\AppData\\Local\\Programs\\Microsoft VS Code\\bin",
    "PATHEXT": ".COM;.EXE;.BAT;.CMD;.VBS;.VBE;.JSE;.WSF;.WSH;.MSC",
    "PkgDefApplicationConfigFile": "C:\\Users\\kreed\\AppData\\Local\\Microsoft\\VisualStudio\\16.0_70bcefea\\devenv.exe.config",
    "PROCESSOR_ARCHITECTURE": "AMD64",
    "PROCESSOR_IDENTIFIER": "Intel64 Family 6 Model 142 Stepping 9, GenuineIntel",
    "PROCESSOR_LEVEL": "6",
    "PROCESSOR_REVISION": "8e09",
    "ProgramData": "C:\\ProgramData",
    "ProgramFiles": "C:\\Program Files",
    "ProgramFiles(x86)": "C:\\Program Files (x86)",
    "ProgramW6432": "C:\\Program Files",
    "PROMPT": "$P$G",
    "PSModulePath": "C:\\Program Files\\WindowsPowerShell\\Modules;C:\\WINDOWS\\system32\\WindowsPowerShell\\v1.0\\Modules;C:\\Program Files (x86)\\Microsoft SQL Server\\140\\Tools\\PowerShell\\Modules\\",
    "PUBLIC": "C:\\Users\\Public",
    "SystemDrive": "C:",
    "SystemRoot": "C:\\WINDOWS",
    "TEMP": "C:\\Users\\kreed\\AppData\\Local\\Temp",
    "ThreadedWaitDialogDpiContext": "-2",
    "TMP": "C:\\Users\\kreed\\AppData\\Local\\Temp",
    "USERDOMAIN": "DESKTOP-64NCD0R",
    "USERDOMAIN_ROAMINGPROFILE": "DESKTOP-64NCD0R",
    "USERNAME": "kreed",
    "USERPROFILE": "C:\\Users\\kreed",
    "VisualStudioDir": "C:\\Users\\kreed\\OneDrive\\Documents\\Visual Studio 2019",
    "VisualStudioEdition": "Microsoft Visual Studio Community 2019",
    "VisualStudioVersion": "16.0",
    "VSAPPIDDIR": "C:\\Program Files (x86)\\Microsoft Visual Studio\\2019\\Community\\Common7\\IDE\\",
    "VSAPPIDNAME": "devenv.exe",
    "VSLANG": "1033",
    "VSSKUEDITION": "Community",
    "windir": "C:\\WINDOWS"
  },
  "sharedObjects": [
    "C:\\Program Files\\nodejs\\node.exe",
    "C:\\WINDOWS\\SYSTEM32\\ntdll.dll",
    "C:\\WINDOWS\\System32\\KERNEL32.DLL",
    "C:\\WINDOWS\\System32\\KERNELBASE.dll",
    "C:\\WINDOWS\\System32\\WS2_32.dll",
    "C:\\WINDOWS\\System32\\RPCRT4.dll",
    "C:\\WINDOWS\\System32\\ADVAPI32.dll",
    "C:\\WINDOWS\\SYSTEM32\\dbghelp.dll",
    "C:\\WINDOWS\\System32\\msvcrt.dll",
    "C:\\WINDOWS\\System32\\sechost.dll",
    "C:\\WINDOWS\\System32\\USER32.dll",
    "C:\\WINDOWS\\System32\\ucrtbase.dll",
    "C:\\WINDOWS\\System32\\win32u.dll",
    "C:\\WINDOWS\\System32\\GDI32.dll",
    "C:\\WINDOWS\\System32\\gdi32full.dll",
    "C:\\WINDOWS\\System32\\msvcp_win.dll",
    "C:\\WINDOWS\\System32\\PSAPI.DLL",
    "C:\\WINDOWS\\System32\\CRYPT32.dll",
    "C:\\WINDOWS\\System32\\MSASN1.dll",
    "C:\\WINDOWS\\SYSTEM32\\USERENV.dll",
    "C:\\WINDOWS\\SYSTEM32\\IPHLPAPI.DLL",
    "C:\\WINDOWS\\System32\\profapi.dll",
    "C:\\WINDOWS\\SYSTEM32\\bcrypt.dll",
    "C:\\WINDOWS\\SYSTEM32\\WINMM.dll",
    "C:\\WINDOWS\\SYSTEM32\\winmmbase.dll",
    "C:\\WINDOWS\\System32\\cfgmgr32.dll",
    "C:\\WINDOWS\\System32\\IMM32.DLL",
    "C:\\WINDOWS\\System32\\powrprof.dll",
    "C:\\WINDOWS\\system32\\uxtheme.dll",
    "C:\\WINDOWS\\System32\\combase.dll",
    "C:\\WINDOWS\\System32\\bcryptPrimitives.dll",
    "C:\\WINDOWS\\system32\\mswsock.dll",
    "C:\\WINDOWS\\System32\\kernel.appcore.dll",
    "C:\\WINDOWS\\SYSTEM32\\CRYPTBASE.DLL",
    "C:\\WINDOWS\\System32\\NSI.dll",
    "C:\\WINDOWS\\SYSTEM32\\dhcpcsvc6.DLL",
    "C:\\WINDOWS\\SYSTEM32\\dhcpcsvc.DLL",
    "C:\\WINDOWS\\SYSTEM32\\DNSAPI.dll",
    "C:\\Windows\\System32\\rasadhlp.dll",
    "C:\\WINDOWS\\System32\\fwpuclnt.dll",
    "C:\\WINDOWS\\system32\\napinsp.dll",
    "C:\\WINDOWS\\system32\\pnrpnsp.dll",
    "C:\\WINDOWS\\system32\\NLAapi.dll",
    "C:\\WINDOWS\\System32\\winrnr.dll",
    "C:\\WINDOWS\\System32\\wshbth.dll"
  ]
}